Mexca performance - video
…
The videos are build by selecting and concatenating shots of the most frequent individuals from 1 to 10, as reported by a human annotator in the reference file loaded below.

camera_shots_annotation <- read.csv("camera_shots_annotation.csv", header = T)

Each shot is composed of a variable number of frames. The shots are all 25fps, thus a frame is 1/25 = 0.04

camera_shots_annotation |>
  dplyr::group_by(filename) |>
  dplyr::summarise(frames = mean(frames)) |>
  dplyr::mutate(seconds = frames * 0.04) 

# A tibble: 1,053 × 3
   filename            frames seconds
   <chr>                <dbl>   <dbl>
 1 camera shots_Sub_01    180    7.2 
 2 camera shots_Sub_02    291   11.6 
 3 camera shots_Sub_03     29    1.16
 4 camera shots_Sub_04    335   13.4 
 5 camera shots_Sub_05     82    3.28
 6 camera shots_Sub_06    266   10.6 
 7 camera shots_Sub_07     73    2.92
 8 camera shots_Sub_08    291   11.6 
 9 camera shots_Sub_09     74    2.96
10 camera shots_Sub_10    146    5.84
# … with 1,043 more rows
…
